{
    "name": "Vaveda.Publishing.Editor",
    "references": [
        "GUID:4d30354bbb3764374a397cfa6e29c98c"
    ],
    "includePlatforms": [
        "Editor"
    ],
    "excludePlatforms": [],
    "allowUnsafeCode": false,
    "overrideReferences": true,
    "precompiledReferences": [
        "Facebook.Unity.Editor.dll"
    ],
    "autoReferenced": true,
    "defineConstraints": [],
    "versionDefines": [],
    "noEngineReferences": false
}